Package Building
…
}
```

---

### Generate fake data, reproducibly

```r
generate_df(125)
```

```
## # A tibble: 125 × 2
##    id    values
##    <chr>  <dbl>
##  1 H019    18.5
##  2 V094    12.2
##  3 T057    15.3
##  4 S087    16.5
##  5 N105    14.7
##  6 I124    10.7
##  7 N094    19.4
##  8 V076    16.1
##  9 M004    13.6
## 10 X111    12.3
## # … with 115 more rows
```
…
}
```

---

### Fake data, with customization

```r
generate_df2(125, with_seed = 37, mean = 10, sd = 2)
```

```
## # A tibble: 125 × 2
##    id    values
##    <chr>  <dbl>
##  1 L054   10.2 
##  2 Y047   11.2 
##  3 Q024   12.7 
##  4 V050    9.61
##  5 V003   11.1 
##  6 X104    8.84
##  7 H109    7.73
##  8 G036    9.49
##  9 E041   11.3 
## 10 Z052   12.0 
## # … with 115 more rows
```
…
